command,mean[s],stddev,median[s],user,system,min[s],max[s]
./target/release/rmap,6.415072322200001,0.0042103464648232565,6.416359102,0.0511188,0.1451854,6.410395735,6.41932219
nmap,4.595362337199999,0.13324964013717572,4.666949904,0.1145398,0.1568378,4.372212061,4.69327963
